#! /usr/bin/vvp
:ivl_version "10.3 (stable)";
:ivl_delay_selection "TYPICAL";
:vpi_time_precision + 0;
:vpi_module "system";
:vpi_module "vhdl_sys";
:vpi_module "v2005_math";
:vpi_module "va_math";
S_0x55bf38b186f0 .scope module, "Test" "Test" 2 1;
 .timescale 0 0;
v0x55bf38b2aed0_0 .net "C_OUT", 0 0, L_0x55bf38b2b6d0;  1 drivers
v0x55bf38b2af90_0 .net "S", 0 0, L_0x55bf38b2b140;  1 drivers
v0x55bf38b2b030_0 .var "cnt", 2 0;
L_0x55bf38b2b830 .part v0x55bf38b2b030_0, 2, 1;
L_0x55bf38b2b8d0 .part v0x55bf38b2b030_0, 1, 1;
L_0x55bf38b2b9c0 .part v0x55bf38b2b030_0, 0, 1;
S_0x55bf38b18870 .scope module, "adder" "fa" 2 5, 3 1 0, S_0x55bf38b186f0;
 .timescale 0 0;
    .port_info 0 /INPUT 1 "A"
    .port_info 1 /INPUT 1 "B"
    .port_info 2 /INPUT 1 "C_IN"
    .port_info 3 /OUTPUT 1 "S"
    .port_info 4 /OUTPUT 1 "C_OUT"
L_0x55bf38b2b0d0 .functor XOR 1, L_0x55bf38b2b830, L_0x55bf38b2b8d0, C4<0>, C4<0>;
L_0x55bf38b2b140 .functor XOR 1, L_0x55bf38b2b0d0, L_0x55bf38b2b9c0, C4<0>, C4<0>;
L_0x55bf38b2b200 .functor AND 1, L_0x55bf38b2b0d0, L_0x55bf38b2b9c0, C4<1>, C4<1>;
L_0x55bf38b2b2c0 .functor NOT 1, L_0x55bf38b2b200, C4<0>, C4<0>, C4<0>;
L_0x55bf38b2b3b0 .functor AND 1, L_0x55bf38b2b830, L_0x55bf38b2b8d0, C4<1>, C4<1>;
L_0x55bf38b2b4c0 .functor NOT 1, L_0x55bf38b2b3b0, C4<0>, C4<0>, C4<0>;
L_0x55bf38b2b5c0 .functor AND 1, L_0x55bf38b2b2c0, L_0x55bf38b2b4c0, C4<1>, C4<1>;
L_0x55bf38b2b6d0 .functor NOT 1, L_0x55bf38b2b5c0, C4<0>, C4<0>, C4<0>;
v0x55bf38ae2010_0 .net "A", 0 0, L_0x55bf38b2b830;  1 drivers
v0x55bf38b2a5e0_0 .net "B", 0 0, L_0x55bf38b2b8d0;  1 drivers
v0x55bf38b2a6a0_0 .net "C_IN", 0 0, L_0x55bf38b2b9c0;  1 drivers
v0x55bf38b2a740_0 .net "C_OUT", 0 0, L_0x55bf38b2b6d0;  alias, 1 drivers
v0x55bf38b2a800_0 .net "S", 0 0, L_0x55bf38b2b140;  alias, 1 drivers
v0x55bf38b2a910_0 .net *"_s10", 0 0, L_0x55bf38b2b4c0;  1 drivers
v0x55bf38b2a9f0_0 .net *"_s12", 0 0, L_0x55bf38b2b5c0;  1 drivers
v0x55bf38b2aad0_0 .net *"_s4", 0 0, L_0x55bf38b2b200;  1 drivers
v0x55bf38b2abb0_0 .net *"_s6", 0 0, L_0x55bf38b2b2c0;  1 drivers
v0x55bf38b2ac90_0 .net *"_s8", 0 0, L_0x55bf38b2b3b0;  1 drivers
v0x55bf38b2ad70_0 .net "s1", 0 0, L_0x55bf38b2b0d0;  1 drivers
    .scope S_0x55bf38b186f0;
T_0 ;
    %pushi/vec4 0, 0, 3;
    %store/vec4 v0x55bf38b2b030_0, 0, 3;
    %end;
    .thread T_0;
    .scope S_0x55bf38b186f0;
T_1 ;
    %vpi_call 2 13 "$dumpfile", "sim.vcd" {0 0 0};
    %vpi_call 2 14 "$dumpvars", 32'sb00000000000000000000000000000000, S_0x55bf38b186f0 {0 0 0};
    %end;
    .thread T_1;
    .scope S_0x55bf38b186f0;
T_2 ;
    %delay 1, 0;
    %load/vec4 v0x55bf38b2b030_0;
    %addi 1, 0, 3;
    %store/vec4 v0x55bf38b2b030_0, 0, 3;
    %jmp T_2;
    .thread T_2;
# The file index is used to find the file name in the following table.
:file_names 4;
    "N/A";
    "<interactive>";
    "testwave.v";
    "fa.v";
