00000713
00100513
28050c63
00100713
00200513
000505b3
00c59593
00002637
00b626b3
00171713
00d70733
00300513
00000617
fff62593
0005a6b3
00171713
00d70733
00400513
02a00613
0ff63593
24058863
00000793
00000813
0005a7b3
00b02833
0107a6b3
0016c693
00171713
00d70733
00500513
02a00613
02a64593
0005a6b3
00171713
00d70733
00600513
05566593
07f00613
00c5a6b3
00171713
00d70733
00700513
02a00613
05567593
0005a6b3
00171713
00d70733
00800513
00355593
00100613
00c5a6b3
00171713
00d70733
00900513
ffe00593
4015d593
fff00613
00c5a6b3
00171713
00d70733
00a00513
40c585b3
0005a6b3
00171713
00d70733
00b00513
00200593
00100613
00c595b3
00400613
00c5a6b3
00171713
00d70733
00c00513
00200593
00100613
00c5d5b3
00100613
00c5a6b3
00171713
00d70733
00d00513
00100593
01f00613
40c5d5b3
00000613
00c5a6b3
00171713
00d70733
00e00513
02a00593
00700613
00c5a5b3
0005a6b3
00171713
00d70733
00f00513
000035b3
0005a6b3
00171713
00d70733
01000513
02a00593
05500613
00c5c5b3
07f00613
00c5a6b3
00171713
00d70733
01100513
02a00593
05500613
00c5e5b3
07f00613
00c5a6b3
00171713
00d70733
01200513
fff00593
0f800613
00c5f5b3
00c5a6b3
00171713
00d70733
01300513
04500893
011020a3
00102783
00f8a833
00171713
01070733
01400513
00000597
01058667
00200693
0100006f
00168693
000605e7
00368693
00468693
00700613
00d627b3
00171713
00f70733
01500513
00171713
00051463
00170713
01600513
00171713
00a04463
00170713
01700513
00171713
00055463
00170713
01800513
00171713
fff00793
00f56463
00170713
01900513
00171713
00a7f463
00170713
01000537
00a71463
00000013
00000013
