00000013
00000013
00000013
00000013
00000013
00000013
00000013
00000013
00000013
00000013
00000013
00000013
00000013
00000013
00000013
00000013
00000013
00000013
00000013
00000013
00000013
00000013
00000013
00000013
00000013
00000013
00000013
00000013
00000013
00000013
00000013
00000013
08000913
f6a00993
00000a13
40000a93
01f00b13
1c010bb7
000b8b93
f1402373
00031c63
000172b7
70028293
005b8bb3
09698993
096a0a13
00300c93
e0000493
001484fb
00000d33
00000db3
000008b3
00000833
000007b3
04000033
01078533
01555e63
00051f7b
035f4463
040002b7
00028293
04500033
0180006f
00051f7b
075f5063
040002b7
00028293
04028033
056d5863
000d1ffb
056fd463
01b005b3
01b00633
080000ef
00050833
011005b3
01100633
070000ef
000507b3
01b005b3
01100633
060000ef
00151893
013888b3
40f80db3
009d8db3
040d1d33
f81ff06f
000d1c7b
018d1d13
018c1c13
00845413
01a46433
00845413
01846433
ffec8c93
000cd863
008ba023
00300c93
004b8b93
00248493
f324c8e3
00198993
f349c0e3
0000006f
02c58533
40855513
00008067
